<?xml version="1.0" encoding="utf-8"?>
<!-- Generator: Adobe Illustrator 25.2.3, SVG Export Plug-In . SVG Version: 6.00 Build 0)  -->
<svg version="1.1" id="Layer_1" xmlns="http://www.w3.org/2000/svg" xmlns:xlink="http://www.w3.org/1999/xlink" x="0px" y="0px"
	 viewBox="0 0 171.77 68.22" style="enable-background:new 0 0 171.77 68.22;" xml:space="preserve">
<style type="text/css">
	.st0{fill:#FFFFFF;}
</style>
<rect x="-1.76" width="173.53" height="68.22"/>
<rect x="25.73" y="12.34" class="st0" width="7.59" height="38.48"/>
<rect x="35.72" y="12.34" class="st0" width="7.59" height="38.48"/>
<rect x="46.47" y="12.34" class="st0" width="7.59" height="38.48"/>
<rect x="56.47" y="12.34" class="st0" width="7.59" height="38.48"/>
<rect x="66.74" y="12.34" class="st0" width="7.59" height="38.48"/>
<rect x="76.73" y="12.34" class="st0" width="7.59" height="38.48"/>
<rect x="108.55" y="12.34" class="st0" width="7.59" height="38.48"/>
<rect x="118.82" y="12.34" class="st0" width="7.59" height="38.48"/>
<rect x="128.82" y="12.34" class="st0" width="7.59" height="38.48"/>
<rect x="36.35" y="46.74" transform="matrix(-1.836970e-16 1 -1 -1.836970e-16 115.5367 37.5339)" class="st0" width="5.29" height="59.6"/>
<rect x="36.35" y="54.6" transform="matrix(-1.836970e-16 1 -1 -1.836970e-16 123.3997 45.3969)" class="st0" width="5.29" height="59.6"/>
<rect x="36.35" y="61.57" transform="matrix(-1.836970e-16 1 -1 -1.836970e-16 130.3714 52.3686)" class="st0" width="5.29" height="59.6"/>
</svg>
